<svg data-v-5f19e91b="" xmlns="http://www.w3.org/2000/svg" width="437" height="72" viewBox="0 0 437 72"><!----> <!----> <!----> <g data-v-5f19e91b="" id="6305b99c-5c1f-6e2c-b849-6ef463c4b6be" fill="black" transform="matrix(7.6530609130859375,0,0,7.6530609130859375,98.62867736816406,-20.16132926940918)"><path d="M3.36 10.08L4.20 10.08L4.20 10.08Q4.26 10.30 4.26 10.64L4.26 10.64L4.26 10.64Q4.26 10.96 4.20 11.20L4.20 11.20L1.40 11.20L1.40 11.20Q1.34 10.96 1.34 10.64L1.34 10.64L1.34 10.64Q1.34 10.30 1.40 10.08L1.40 10.08L2.24 10.08L2.24 10.08Q2.18 9.84 2.18 9.52L2.18 9.52L2.18 9.52Q2.18 9.18 2.24 8.96L2.24 8.96L2.24 8.96Q2.18 8.72 2.18 8.40L2.18 8.40L2.18 8.40Q2.18 8.06 2.24 7.84L2.24 7.84L2.24 7.84Q2.18 7.60 2.18 7.28L2.18 7.28L2.18 7.28Q2.18 6.94 2.24 6.72L2.24 6.72L2.24 6.72Q2.18 6.48 2.18 6.16L2.18 6.16L2.18 6.16Q2.18 5.82 2.24 5.60L2.24 5.60L2.24 5.60Q2.18 5.36 2.18 5.04L2.18 5.04L2.18 5.04Q2.18 4.70 2.24 4.48L2.24 4.48L1.40 4.48L1.40 4.48Q1.34 4.24 1.34 3.92L1.34 3.92L1.34 3.92Q1.34 3.58 1.40 3.36L1.40 3.36L4.20 3.36L4.20 3.36Q4.26 3.58 4.26 3.92L4.26 3.92L4.26 3.92Q4.26 4.24 4.20 4.48L4.20 4.48L3.36 4.48L3.36 4.48Q3.42 4.70 3.42 5.04L3.42 5.04L3.42 5.04Q3.42 5.36 3.36 5.60L3.36 5.60L3.36 5.60Q3.42 5.82 3.42 6.16L3.42 6.16L3.42 6.16Q3.42 6.48 3.36 6.72L3.36 6.72L3.36 6.72Q3.42 6.94 3.42 7.28L3.42 7.28L3.42 7.28Q3.42 7.60 3.36 7.84L3.36 7.84L3.36 7.84Q3.42 8.06 3.42 8.40L3.42 8.40L3.42 8.40Q3.42 8.72 3.36 8.96L3.36 8.96L3.36 8.96Q3.42 9.18 3.42 9.52L3.42 9.52L3.42 9.52Q3.42 9.84 3.36 10.08L3.36 10.08ZM10.64 7.84L10.64 7.84Q10.70 8.06 10.70 8.40L10.70 8.40L10.70 8.40Q10.70 8.72 10.64 8.96L10.64 8.96L10.64 8.96Q10.70 9.18 10.70 9.52L10.70 9.52L10.70 9.52Q10.70 9.84 10.64 10.08L10.64 10.08L10.08 10.08L10.08 10.08Q10.14 10.30 10.14 10.64L10.14 10.64L10.14 10.64Q10.14 10.96 10.08 11.20L10.08 11.20L6.72 11.20L6.72 11.20Q6.66 10.96 6.66 10.64L6.66 10.64L6.66 10.64Q6.66 10.30 6.72 10.08L6.72 10.08L6.16 10.08L6.16 10.08Q6.10 9.84 6.10 9.52L6.10 9.52L6.10 9.52Q6.10 9.18 6.16 8.96L6.16 8.96L7.28 8.96L7.28 8.96Q7.34 9.18 7.34 9.52L7.34 9.52L7.34 9.52Q7.34 9.84 7.28 10.08L7.28 10.08L9.52 10.08L9.52 10.08Q9.46 9.84 9.46 9.52L9.46 9.52L9.46 9.52Q9.46 9.18 9.52 8.96L9.52 8.96L9.52 8.96Q9.46 8.72 9.46 8.40L9.46 8.40L9.46 8.40Q9.46 8.06 9.52 7.84L9.52 7.84L6.72 7.84L6.72 7.84Q6.66 7.60 6.66 7.28L6.66 7.28L6.66 7.28Q6.66 6.94 6.72 6.72L6.72 6.72L6.16 6.72L6.16 6.72Q6.10 6.48 6.10 6.16L6.10 6.16L6.10 6.16Q6.10 5.82 6.16 5.60L6.16 5.60L6.16 5.60Q6.10 5.36 6.10 5.04L6.10 5.04L6.10 5.04Q6.10 4.70 6.16 4.48L6.16 4.48L6.72 4.48L6.72 4.48Q6.66 4.24 6.66 3.92L6.66 3.92L6.66 3.92Q6.66 3.58 6.72 3.36L6.72 3.36L10.08 3.36L10.08 3.36Q10.14 3.58 10.14 3.92L10.14 3.92L10.14 3.92Q10.14 4.24 10.08 4.48L10.08 4.48L10.64 4.48L10.64 4.48Q10.70 4.70 10.70 5.04L10.70 5.04L10.70 5.04Q10.70 5.36 10.64 5.60L10.64 5.60L9.52 5.60L9.52 5.60Q9.46 5.36 9.46 5.04L9.46 5.04L9.46 5.04Q9.46 4.70 9.52 4.48L9.52 4.48L7.28 4.48L7.28 4.48Q7.34 4.70 7.34 5.04L7.34 5.04L7.34 5.04Q7.34 5.36 7.28 5.60L7.28 5.60L7.28 5.60Q7.34 5.82 7.34 6.16L7.34 6.16L7.34 6.16Q7.34 6.48 7.28 6.72L7.28 6.72L10.08 6.72L10.08 6.72Q10.14 6.94 10.14 7.28L10.14 7.28L10.14 7.28Q10.14 7.60 10.08 7.84L10.08 7.84L10.64 7.84ZM15.12 8.96L16.24 8.96L16.24 8.96Q16.30 9.18 16.30 9.52L16.30 9.52L16.30 9.52Q16.30 9.84 16.24 10.08L16.24 10.08L15.68 10.08L15.68 10.08Q15.74 10.30 15.74 10.64L15.74 10.64L15.74 10.64Q15.74 10.96 15.68 11.20L15.68 11.20L12.88 11.20L12.88 11.20Q12.82 10.96 12.82 10.64L12.82 10.64L12.82 10.64Q12.82 10.30 12.88 10.08L12.88 10.08L12.32 10.08L12.32 10.08Q12.26 9.84 12.26 9.52L12.26 9.52L12.26 9.52Q12.26 9.18 12.32 8.96L12.32 8.96L11.76 8.96L11.76 8.96Q11.70 8.72 11.70 8.40L11.70 8.40L11.70 8.40Q11.70 8.06 11.76 7.84L11.76 7.84L11.76 7.84Q11.70 7.60 11.70 7.28L11.70 7.28L11.70 7.28Q11.70 6.94 11.76 6.72L11.76 6.72L11.76 6.72Q11.70 6.48 11.70 6.16L11.70 6.16L11.70 6.16Q11.70 5.82 11.76 5.60L11.76 5.60L12.32 5.60L12.32 5.60Q12.26 5.36 12.26 5.04L12.26 5.04L12.26 5.04Q12.26 4.70 12.32 4.48L12.32 4.48L12.88 4.48L12.88 4.48Q12.82 4.24 12.82 3.92L12.82 3.92L12.82 3.92Q12.82 3.58 12.88 3.36L12.88 3.36L15.68 3.36L15.68 3.36Q15.74 3.58 15.74 3.92L15.74 3.92L15.74 3.92Q15.74 4.24 15.68 4.48L15.68 4.48L16.24 4.48L16.24 4.48Q16.30 4.70 16.30 5.04L16.30 5.04L16.30 5.04Q16.30 5.36 16.24 5.60L16.24 5.60L15.12 5.60L15.12 5.60Q15.06 5.36 15.06 5.04L15.06 5.04L15.06 5.04Q15.06 4.70 15.12 4.48L15.12 4.48L13.44 4.48L13.44 4.48Q13.50 4.70 13.50 5.04L13.50 5.04L13.50 5.04Q13.50 5.36 13.44 5.60L13.44 5.60L12.88 5.60L12.88 5.60Q12.94 5.82 12.94 6.16L12.94 6.16L12.94 6.16Q12.94 6.48 12.88 6.72L12.88 6.72L12.88 6.72Q12.94 6.94 12.94 7.28L12.94 7.28L12.94 7.28Q12.94 7.60 12.88 7.84L12.88 7.84L12.88 7.84Q12.94 8.06 12.94 8.40L12.94 8.40L12.94 8.40Q12.94 8.72 12.88 8.96L12.88 8.96L13.44 8.96L13.44 8.96Q13.50 9.18 13.50 9.52L13.50 9.52L13.50 9.52Q13.50 9.84 13.44 10.08L13.44 10.08L15.12 10.08L15.12 10.08Q15.06 9.84 15.06 9.52L15.06 9.52L15.06 9.52Q15.06 9.18 15.12 8.96L15.12 8.96ZM27.22 6.16L27.22 6.16Q27.22 6.48 27.16 6.72L27.16 6.72L26.46 6.72L26.46 6.72Q26.52 6.94 26.52 7.28L26.52 7.28L26.52 7.28Q26.52 7.60 26.46 7.84L26.46 7.84L25.76 7.84L25.76 7.84Q25.82 8.06 25.82 8.40L25.82 8.40L25.82 8.40Q25.82 8.72 25.76 8.96L25.76 8.96L25.06 8.96L25.06 8.96Q25.12 9.18 25.12 9.52L25.12 9.52L25.12 9.52Q25.12 9.84 25.06 10.08L25.06 10.08L27.16 10.08L27.16 10.08Q27.22 10.30 27.22 10.64L27.22 10.64L27.22 10.64Q27.22 10.96 27.16 11.20L27.16 11.20L23.24 11.20L23.24 11.20Q23.18 10.96 23.18 10.64L23.18 10.64L23.18 10.64Q23.18 10.30 23.24 10.08L23.24 10.08L23.94 10.08L23.94 10.08Q23.88 9.84 23.88 9.52L23.88 9.52L23.88 9.52Q23.88 9.18 23.94 8.96L23.94 8.96L24.64 8.96L24.64 8.96Q24.58 8.72 24.58 8.40L24.58 8.40L24.58 8.40Q24.58 8.06 24.64 7.84L24.64 7.84L25.34 7.84L25.34 7.84Q25.28 7.60 25.28 7.28L25.28 7.28L25.28 7.28Q25.28 6.94 25.34 6.72L25.34 6.72L26.04 6.72L26.04 6.72Q25.98 6.48 25.98 6.16L25.98 6.16L25.98 6.16Q25.98 5.82 26.04 5.60L26.04 5.60L26.04 5.60Q25.98 5.36 25.98 5.04L25.98 5.04L25.98 5.04Q25.98 4.70 26.04 4.48L26.04 4.48L24.08 4.48L24.08 4.48Q24.14 4.70 24.14 5.04L24.14 5.04L24.14 5.04Q24.14 5.36 24.08 5.60L24.08 5.60L23.24 5.60L23.24 5.60Q23.18 5.36 23.18 5.04L23.18 5.04L23.18 5.04Q23.18 4.70 23.24 4.48L23.24 4.48L23.80 4.48L23.80 4.48Q23.74 4.24 23.74 3.92L23.74 3.92L23.74 3.92Q23.74 3.58 23.80 3.36L23.80 3.36L26.60 3.36L26.60 3.36Q26.66 3.58 26.66 3.92L26.66 3.92L26.66 3.92Q26.66 4.24 26.60 4.48L26.60 4.48L27.16 4.48L27.16 4.48Q27.22 4.70 27.22 5.04L27.22 5.04L27.22 5.04Q27.22 5.36 27.16 5.60L27.16 5.60L27.16 5.60Q27.22 5.82 27.22 6.16L27.22 6.16ZM31.56 3.92L31.56 3.92Q31.56 4.24 31.50 4.48L31.50 4.48L30.10 4.48L30.10 4.48Q30.04 4.24 30.04 3.92L30.04 3.92L30.04 3.92Q30.04 3.58 30.10 3.36L30.10 3.36L31.50 3.36L31.50 3.36Q31.56 3.58 31.56 3.92L31.56 3.92ZM30.10 8.96L30.10 8.96Q30.16 9.18 30.16 9.52L30.16 9.52L30.16 9.52Q30.16 9.84 30.10 10.08L30.10 10.08L29.40 10.08L29.40 10.08Q29.34 9.84 29.34 9.52L29.34 9.52L29.34 9.52Q29.34 9.18 29.40 8.96L29.40 8.96L28.98 8.96L28.98 8.96Q28.92 8.72 28.92 8.40L28.92 8.40L28.92 8.40Q28.92 8.06 28.98 7.84L28.98 7.84L28.98 7.84Q28.92 7.60 28.92 7.28L28.92 7.28L28.92 7.28Q28.92 6.94 28.98 6.72L28.98 6.72L28.98 6.72Q28.92 6.48 28.92 6.16L28.92 6.16L28.92 6.16Q28.92 5.82 28.98 5.60L28.98 5.60L29.40 5.60L29.40 5.60Q29.34 5.36 29.34 5.04L29.34 5.04L29.34 5.04Q29.34 4.70 29.40 4.48L29.40 4.48L30.10 4.48L30.10 4.48Q30.16 4.70 30.16 5.04L30.16 5.04L30.16 5.04Q30.16 5.36 30.10 5.60L30.10 5.60L30.10 5.60Q30.16 5.82 30.16 6.16L30.16 6.16L30.16 6.16Q30.16 6.48 30.10 6.72L30.10 6.72L30.10 6.72Q30.16 6.94 30.16 7.28L30.16 7.28L30.16 7.28Q30.16 7.60 30.10 7.84L30.10 7.84L30.10 7.84Q30.16 8.06 30.16 8.40L30.16 8.40L30.16 8.40Q30.16 8.72 30.10 8.96L30.10 8.96ZM32.62 6.72L32.62 6.72Q32.68 6.94 32.68 7.28L32.68 7.28L32.68 7.28Q32.68 7.60 32.62 7.84L32.62 7.84L32.62 7.84Q32.68 8.06 32.68 8.40L32.68 8.40L32.68 8.40Q32.68 8.72 32.62 8.96L32.62 8.96L32.20 8.96L32.20 8.96Q32.26 9.18 32.26 9.52L32.26 9.52L32.26 9.52Q32.26 9.84 32.20 10.08L32.20 10.08L31.50 10.08L31.50 10.08Q31.44 9.84 31.44 9.52L31.44 9.52L31.44 9.52Q31.44 9.18 31.50 8.96L31.50 8.96L31.50 8.96Q31.44 8.72 31.44 8.40L31.44 8.40L31.44 8.40Q31.44 8.06 31.50 7.84L31.50 7.84L31.50 7.84Q31.44 7.60 31.44 7.28L31.44 7.28L31.44 7.28Q31.44 6.94 31.50 6.72L31.50 6.72L31.50 6.72Q31.44 6.48 31.44 6.16L31.44 6.16L31.44 6.16Q31.44 5.82 31.50 5.60L31.50 5.60L31.50 5.60Q31.44 5.36 31.44 5.04L31.44 5.04L31.44 5.04Q31.44 4.70 31.50 4.48L31.50 4.48L32.20 4.48L32.20 4.48Q32.26 4.70 32.26 5.04L32.26 5.04L32.26 5.04Q32.26 5.36 32.20 5.60L32.20 5.60L32.62 5.60L32.62 5.60Q32.68 5.82 32.68 6.16L32.68 6.16L32.68 6.16Q32.68 6.48 32.62 6.72L32.62 6.72ZM30.04 10.64L30.04 10.64Q30.04 10.30 30.10 10.08L30.10 10.08L31.50 10.08L31.50 10.08Q31.56 10.30 31.56 10.64L31.56 10.64L31.56 10.64Q31.56 10.96 31.50 11.20L31.50 11.20L30.10 11.20L30.10 11.20Q30.04 10.96 30.04 10.64L30.04 10.64ZM38.08 10.08L38.08 10.08Q38.14 10.30 38.14 10.64L38.14 10.64L38.14 10.64Q38.14 10.96 38.08 11.20L38.08 11.20L34.72 11.20L34.72 11.20Q34.66 10.96 34.66 10.64L34.66 10.64L34.66 10.64Q34.66 10.30 34.72 10.08L34.72 10.08L35.84 10.08L35.84 10.08Q35.78 9.84 35.78 9.52L35.78 9.52L35.78 9.52Q35.78 9.18 35.84 8.96L35.84 8.96L35.84 8.96Q35.78 8.72 35.78 8.40L35.78 8.40L35.78 8.40Q35.78 8.06 35.84 7.84L35.84 7.84L35.84 7.84Q35.78 7.60 35.78 7.28L35.78 7.28L35.78 7.28Q35.78 6.94 35.84 6.72L35.84 6.72L35.84 6.72Q35.78 6.48 35.78 6.16L35.78 6.16L35.78 6.16Q35.78 5.82 35.84 5.60L35.84 5.60L35 5.60L35 5.60Q34.94 5.36 34.94 5.04L34.94 5.04L34.94 5.04Q34.94 4.70 35 4.48L35 4.48L35.84 4.48L35.84 4.48Q35.78 4.24 35.78 3.92L35.78 3.92L35.78 3.92Q35.78 3.58 35.84 3.36L35.84 3.36L36.96 3.36L36.96 3.36Q37.02 3.58 37.02 3.92L37.02 3.92L37.02 3.92Q37.02 4.24 36.96 4.48L36.96 4.48L36.96 4.48Q37.02 4.70 37.02 5.04L37.02 5.04L37.02 5.04Q37.02 5.36 36.96 5.60L36.96 5.60L36.96 5.60Q37.02 5.82 37.02 6.16L37.02 6.16L37.02 6.16Q37.02 6.48 36.96 6.72L36.96 6.72L36.96 6.72Q37.02 6.94 37.02 7.28L37.02 7.28L37.02 7.28Q37.02 7.60 36.96 7.84L36.96 7.84L36.96 7.84Q37.02 8.06 37.02 8.40L37.02 8.40L37.02 8.40Q37.02 8.72 36.96 8.96L36.96 8.96L36.96 8.96Q37.02 9.18 37.02 9.52L37.02 9.52L37.02 9.52Q37.02 9.84 36.96 10.08L36.96 10.08L38.08 10.08ZM41.15 6.16L41.15 6.16Q41.15 6.48 41.09 6.72L41.09 6.72L42.49 6.72L42.49 6.72Q42.55 6.94 42.55 7.28L42.55 7.28L42.55 7.28Q42.55 7.60 42.49 7.84L42.49 7.84L40.53 7.84L40.53 7.84Q40.47 7.60 40.47 7.28L40.47 7.28L40.47 7.28Q40.47 6.94 40.53 6.72L40.53 6.72L39.97 6.72L39.97 6.72Q39.91 6.48 39.91 6.16L39.91 6.16L39.91 6.16Q39.91 5.82 39.97 5.60L39.97 5.60L39.97 5.60Q39.91 5.36 39.91 5.04L39.91 5.04L39.91 5.04Q39.91 4.70 39.97 4.48L39.97 4.48L40.81 4.48L40.81 4.48Q40.75 4.24 40.75 3.92L40.75 3.92L40.75 3.92Q40.75 3.58 40.81 3.36L40.81 3.36L42.49 3.36L42.49 3.36Q42.55 3.58 42.55 3.92L42.55 3.92L42.55 3.92Q42.55 4.24 42.49 4.48L42.49 4.48L41.09 4.48L41.09 4.48Q41.15 4.70 41.15 5.04L41.15 5.04L41.15 5.04Q41.15 5.36 41.09 5.60L41.09 5.60L41.09 5.60Q41.15 5.82 41.15 6.16L41.15 6.16ZM44.03 6.72L44.03 6.72Q44.09 6.94 44.09 7.28L44.09 7.28L44.09 7.28Q44.09 7.60 44.03 7.84L44.03 7.84L44.03 7.84Q44.09 8.06 44.09 8.40L44.09 8.40L44.09 8.40Q44.09 8.72 44.03 8.96L44.03 8.96L43.61 8.96L43.61 8.96Q43.67 9.18 43.67 9.52L43.67 9.52L43.67 9.52Q43.67 9.84 43.61 10.08L43.61 10.08L42.49 10.08L42.49 10.08Q42.43 9.84 42.43 9.52L42.43 9.52L42.43 9.52Q42.43 9.18 42.49 8.96L42.49 8.96L42.91 8.96L42.91 8.96Q42.85 8.72 42.85 8.40L42.85 8.40L42.85 8.40Q42.85 8.06 42.91 7.84L42.91 7.84L42.91 7.84Q42.85 7.60 42.85 7.28L42.85 7.28L42.85 7.28Q42.85 6.94 42.91 6.72L42.91 6.72L42.49 6.72L42.49 6.72Q42.43 6.48 42.43 6.16L42.43 6.16L42.43 6.16Q42.43 5.82 42.49 5.60L42.49 5.60L42.49 5.60Q42.43 5.36 42.43 5.04L42.43 5.04L42.43 5.04Q42.43 4.70 42.49 4.48L42.49 4.48L43.61 4.48L43.61 4.48Q43.67 4.70 43.67 5.04L43.67 5.04L43.67 5.04Q43.67 5.36 43.61 5.60L43.61 5.60L44.03 5.60L44.03 5.60Q44.09 5.82 44.09 6.16L44.09 6.16L44.09 6.16Q44.09 6.48 44.03 6.72L44.03 6.72ZM40.47 10.64L40.47 10.64Q40.47 10.30 40.53 10.08L40.53 10.08L42.49 10.08L42.49 10.08Q42.55 10.30 42.55 10.64L42.55 10.64L42.55 10.64Q42.55 10.96 42.49 11.20L42.49 11.20L40.53 11.20L40.53 11.20Q40.47 10.96 40.47 10.64L40.47 10.64Z"></path></g> <!----> <g data-v-5f19e91b="" id="9e5b41c5-3551-d738-4588-85a59de87998" transform="matrix(0.8888563513755798,0,0,0.8888563513755798,0.5583205223083496,0.44704797863960266)" stroke="none" fill="black"><!--?xml version="1.0" encoding="utf-8"?--><path d="M99.83,38.406c-0.208-1.5-0.539-2.889-0.734-3.088c-0.434-0.44-6.667,1.405-13.386,3.961
	c-9.14,3.479-16.956,8.074-22.536,13.157c0.162-2.141,0.234-4.286,0.089-6.428c-0.041-0.632-0.137-1.261-0.205-1.89
	c-0.41-2.821-1.359-5.509-3.221-7.705c-0.406-0.484-0.871-0.919-1.309-1.378c-2.698-2.477-5.834-4.372-9.042-6.111
	c0.127-0.105,0.265-0.218,0.406-0.333c3.736-1.438,7.448-2.961,10.576-5.055c0.438-0.335,0.901-0.651,1.312-1.004
	c1.858-1.602,2.808-3.562,3.218-5.619c0.068-0.458,0.164-0.916,0.205-1.375c0.259-2.797-0.164-5.604-0.592-8.379
	C64.136,4.746,63.57,2.334,62.589,0l-4.103,1.665c1.143,1.977,1.717,4.094,2.189,6.205H36.794c0.501-2.111,1.109-4.229,2.319-6.205
	L34.765,0c-1.042,2.334-1.644,4.746-2.147,7.158c-0.451,2.775-0.902,5.582-0.627,8.379c0.045,0.46,0.145,0.917,0.218,1.375
	c0.437,2.057,1.444,4.017,3.415,5.619c0.438,0.353,0.929,0.669,1.39,1.004c3.285,2.072,7.178,3.587,11.099,5.011
	c0.159,0.13,0.316,0.258,0.459,0.376c-3.219,1.74-6.363,3.635-9.068,6.112c-0.437,0.459-0.902,0.894-1.312,1.378
	c-1.865,2.196-2.814,4.884-3.229,7.705c-0.069,0.629-0.163,1.258-0.206,1.89c-0.139,2.051-0.079,4.105,0.07,6.156
	c-5.309-4.935-12.627-9.393-21.155-12.786c-6.427-2.557-12.391-4.402-12.804-3.961c-0.188,0.199-0.505,1.589-0.704,3.088
	c-0.401,3.016-0.046,6.874,0.928,10.078c3.837,12.612,17.536,23.151,39.181,30.14c4.802,1.551,4.362,1.465,4.69,0.905
	c0.484-0.839,0.594-7.729,0.153-9.791c-0.974-4.548-2.442-7.967-5.038-11.721c-0.21-0.305-0.44-0.606-0.666-0.908
	c-0.097-0.57-0.19-1.14-0.28-1.708c-0.285-2.374-0.537-4.772-0.603-7.172h20.976c-0.066,2.399-0.318,4.798-0.604,7.172
	c-0.099,0.625-0.201,1.251-0.309,1.877c-0.163,0.213-0.336,0.426-0.49,0.64c-2.716,3.752-4.249,7.171-5.267,11.72
	c-0.458,2.062-0.346,8.954,0.16,9.792c0.342,0.561-0.119,0.646,4.905-0.906c22.628-6.988,36.95-17.526,40.96-30.139
	C99.877,45.281,100.25,41.422,99.83,38.406z M50.958,27.712c0.048-0.042,0.084-0.076,0.101-0.094
	C51.103,27.608,51.056,27.646,50.958,27.712z M36.101,16.965c-0.15-1.166-0.163-2.335-0.098-3.504h25.418
	c0.062,1.169,0.049,2.338-0.093,3.504c-0.013,0.102-0.034,0.203-0.051,0.305H36.155C36.137,17.168,36.114,17.067,36.101,16.965z
	 M36.078,12.461c0.112-1.201,0.294-2.4,0.5-3.591h24.304c0.192,1.191,0.365,2.39,0.471,3.591H36.078z M39.923,23.805
	c-2.015-1.57-3.057-3.428-3.559-5.476c-0.004-0.02-0.008-0.039-0.012-0.059h24.74c-0.004,0.02-0.008,0.039-0.012,0.059
	c-0.472,2.048-1.455,3.906-3.354,5.476c-0.406,0.336-0.864,0.64-1.294,0.959c-1.652,1.07-3.448,2.042-5.366,2.844
	c0.008-0.015-0.016-0.007-0.096,0.042c-0.647,0.338-1.296,0.681-1.941,1.026c-0.645-0.346-1.29-0.688-1.936-1.026
	c-0.088-0.055-0.113-0.063-0.097-0.041c-2.036-0.802-3.945-1.774-5.696-2.846C40.838,24.444,40.357,24.141,39.923,23.805z
	 M47.004,27.621c0.017,0.019,0.05,0.049,0.094,0.088C46.995,27.643,46.953,27.608,47.004,27.621z M43.554,33.351
	c1.68-1.492,3.515-2.848,5.475-3.958c-0.156,0.088-0.128,0.042,0-0.077c0.127,0.119,0.156,0.165,0,0.077
	c1.954,1.11,3.781,2.465,5.462,3.958c0.431,0.439,0.888,0.853,1.295,1.315c0.774,0.879,1.391,1.827,1.888,2.828L40.31,37.596
	c0.507-1.039,1.139-2.021,1.942-2.929C42.663,34.204,43.12,33.79,43.554,33.351z M39.869,38.598l18.252-0.106
	c0.472,1.166,0.803,2.396,1.019,3.686c0.025,0.188,0.054,0.374,0.082,0.561H38.807c0.028-0.187,0.057-0.373,0.081-0.561
	C39.099,40.927,39.419,39.733,39.869,38.598z M38.516,47.33c-0.005-1.096,0.027-2.19,0.123-3.282
	c0.009-0.104,0.026-0.206,0.038-0.31h20.676c0.012,0.104,0.028,0.206,0.037,0.31c0.098,1.104,0.131,2.21,0.125,3.317L38.516,47.33z"></path></g></svg>