<svg data-v-5f19e91b="" xmlns="http://www.w3.org/2000/svg" width="451" height="72" viewBox="0 0 451 72"><!----> <!----> <!----> <g data-v-5f19e91b="" id="d5b53502-6e36-cca4-a53a-80b69d173520" fill="black" transform="matrix(6.054490566253662,0,0,6.054490566253662,101.0734634399414,-12.005071640014648)"><path d="M2.60 12.67L1.29 12.67L1.29 3.04L2.60 3.04L2.60 12.67ZM12.58 10.01L12.58 10.01L12.58 10.01Q12.58 11.35 11.54 12.08L11.54 12.08L11.54 12.08Q10.50 12.81 8.61 12.81L8.61 12.81L8.61 12.81Q5.09 12.81 4.53 10.36L4.53 10.36L5.79 10.11L5.79 10.11Q6.01 10.98 6.72 11.39L6.72 11.39L6.72 11.39Q7.43 11.79 8.65 11.79L8.65 11.79L8.65 11.79Q9.92 11.79 10.61 11.36L10.61 11.36L10.61 11.36Q11.29 10.92 11.29 10.08L11.29 10.08L11.29 10.08Q11.29 9.61 11.08 9.32L11.08 9.32L11.08 9.32Q10.86 9.02 10.47 8.83L10.47 8.83L10.47 8.83Q10.08 8.64 9.54 8.51L9.54 8.51L9.54 8.51Q9.00 8.38 8.35 8.23L8.35 8.23L8.35 8.23Q7.21 7.98 6.61 7.72L6.61 7.72L6.61 7.72Q6.02 7.47 5.68 7.16L5.68 7.16L5.68 7.16Q5.34 6.85 5.16 6.43L5.16 6.43L5.16 6.43Q4.98 6.02 4.98 5.48L4.98 5.48L4.98 5.48Q4.98 4.24 5.92 3.57L5.92 3.57L5.92 3.57Q6.87 2.90 8.63 2.90L8.63 2.90L8.63 2.90Q10.27 2.90 11.14 3.40L11.14 3.40L11.14 3.40Q12.01 3.90 12.36 5.11L12.36 5.11L11.07 5.34L11.07 5.34Q10.86 4.57 10.27 4.23L10.27 4.23L10.27 4.23Q9.67 3.88 8.62 3.88L8.62 3.88L8.62 3.88Q7.46 3.88 6.86 4.27L6.86 4.27L6.86 4.27Q6.25 4.65 6.25 5.41L6.25 5.41L6.25 5.41Q6.25 5.85 6.48 6.14L6.48 6.14L6.48 6.14Q6.72 6.43 7.16 6.63L7.16 6.63L7.16 6.63Q7.61 6.84 8.93 7.13L8.93 7.13L8.93 7.13Q9.38 7.23 9.82 7.34L9.82 7.34L9.82 7.34Q10.26 7.44 10.66 7.59L10.66 7.59L10.66 7.59Q11.07 7.74 11.42 7.94L11.42 7.94L11.42 7.94Q11.77 8.13 12.03 8.42L12.03 8.42L12.03 8.42Q12.29 8.71 12.44 9.10L12.44 9.10L12.44 9.10Q12.58 9.49 12.58 10.01ZM18.64 3.96L18.64 3.96L18.64 3.96Q17.04 3.96 16.15 4.99L16.15 4.99L16.15 4.99Q15.26 6.02 15.26 7.81L15.26 7.81L15.26 7.81Q15.26 9.58 16.19 10.66L16.19 10.66L16.19 10.66Q17.12 11.74 18.70 11.74L18.70 11.74L18.70 11.74Q20.72 11.74 21.74 9.73L21.74 9.73L22.80 10.27L22.80 10.27Q22.21 11.51 21.13 12.16L21.13 12.16L21.13 12.16Q20.06 12.81 18.63 12.81L18.63 12.81L18.63 12.81Q17.18 12.81 16.12 12.21L16.12 12.21L16.12 12.21Q15.05 11.60 14.50 10.48L14.50 10.48L14.50 10.48Q13.94 9.35 13.94 7.81L13.94 7.81L13.94 7.81Q13.94 5.51 15.18 4.20L15.18 4.20L15.18 4.20Q16.43 2.90 18.63 2.90L18.63 2.90L18.63 2.90Q20.17 2.90 21.20 3.50L21.20 3.50L21.20 3.50Q22.23 4.10 22.72 5.28L22.72 5.28L21.48 5.69L21.48 5.69Q21.14 4.85 20.40 4.41L20.40 4.41L20.40 4.41Q19.66 3.96 18.64 3.96ZM34.31 12.67L27.93 12.67L27.93 11.81L27.93 11.81Q28.28 11.01 28.78 10.39L28.78 10.39L28.78 10.39Q29.29 9.78 29.84 9.29L29.84 9.29L29.84 9.29Q30.39 8.79 30.94 8.37L30.94 8.37L30.94 8.37Q31.48 7.94 31.92 7.52L31.92 7.52L31.92 7.52Q32.35 7.10 32.62 6.63L32.62 6.63L32.62 6.63Q32.89 6.17 32.89 5.58L32.89 5.58L32.89 5.58Q32.89 4.79 32.43 4.35L32.43 4.35L32.43 4.35Q31.96 3.91 31.14 3.91L31.14 3.91L31.14 3.91Q30.35 3.91 29.84 4.34L29.84 4.34L29.84 4.34Q29.33 4.76 29.24 5.54L29.24 5.54L27.99 5.42L27.99 5.42Q28.12 4.27 28.97 3.58L28.97 3.58L28.97 3.58Q29.81 2.90 31.14 2.90L31.14 2.90L31.14 2.90Q32.59 2.90 33.38 3.59L33.38 3.59L33.38 3.59Q34.16 4.27 34.16 5.54L34.16 5.54L34.16 5.54Q34.16 6.10 33.90 6.65L33.90 6.65L33.90 6.65Q33.65 7.21 33.14 7.76L33.14 7.76L33.14 7.76Q32.63 8.31 31.21 9.47L31.21 9.47L31.21 9.47Q30.42 10.12 29.96 10.63L29.96 10.63L29.96 10.63Q29.49 11.15 29.29 11.63L29.29 11.63L34.31 11.63L34.31 12.67ZM42.25 7.85L42.25 7.85L42.25 7.85Q42.25 10.27 41.40 11.54L41.40 11.54L41.40 11.54Q40.55 12.81 38.89 12.81L38.89 12.81L38.89 12.81Q37.23 12.81 36.39 11.55L36.39 11.55L36.39 11.55Q35.56 10.28 35.56 7.85L35.56 7.85L35.56 7.85Q35.56 5.37 36.37 4.14L36.37 4.14L36.37 4.14Q37.18 2.90 38.93 2.90L38.93 2.90L38.93 2.90Q40.63 2.90 41.44 4.15L41.44 4.15L41.44 4.15Q42.25 5.40 42.25 7.85ZM41.00 7.85L41.00 7.85L41.00 7.85Q41.00 5.77 40.52 4.83L40.52 4.83L40.52 4.83Q40.04 3.90 38.93 3.90L38.93 3.90L38.93 3.90Q37.80 3.90 37.30 4.82L37.30 4.82L37.30 4.82Q36.80 5.74 36.80 7.85L36.80 7.85L36.80 7.85Q36.80 9.91 37.31 10.86L37.31 10.86L37.31 10.86Q37.81 11.81 38.90 11.81L38.90 11.81L38.90 11.81Q39.99 11.81 40.50 10.83L40.50 10.83L40.50 10.83Q41.00 9.86 41.00 7.85ZM49.90 12.67L43.87 12.67L43.87 11.63L46.32 11.63L46.32 4.22L44.15 5.77L44.15 4.61L46.42 3.04L47.56 3.04L47.56 11.63L49.90 11.63L49.90 12.67ZM57.71 7.66L57.71 7.66L57.71 7.66Q57.71 10.14 56.80 11.48L56.80 11.48L56.80 11.48Q55.90 12.81 54.22 12.81L54.22 12.81L54.22 12.81Q53.09 12.81 52.41 12.34L52.41 12.34L52.41 12.34Q51.73 11.86 51.44 10.80L51.44 10.80L52.62 10.62L52.62 10.62Q52.99 11.82 54.24 11.82L54.24 11.82L54.24 11.82Q55.30 11.82 55.88 10.83L55.88 10.83L55.88 10.83Q56.46 9.85 56.49 8.03L56.49 8.03L56.49 8.03Q56.22 8.64 55.56 9.01L55.56 9.01L55.56 9.01Q54.89 9.39 54.10 9.39L54.10 9.39L54.10 9.39Q52.80 9.39 52.02 8.50L52.02 8.50L52.02 8.50Q51.24 7.61 51.24 6.14L51.24 6.14L51.24 6.14Q51.24 4.63 52.09 3.76L52.09 3.76L52.09 3.76Q52.94 2.90 54.45 2.90L54.45 2.90L54.45 2.90Q56.05 2.90 56.88 4.09L56.88 4.09L56.88 4.09Q57.71 5.28 57.71 7.66ZM56.37 6.47L56.37 6.47L56.37 6.47Q56.37 5.31 55.84 4.60L55.84 4.60L55.84 4.60Q55.30 3.90 54.41 3.90L54.41 3.90L54.41 3.90Q53.52 3.90 53.01 4.50L53.01 4.50L53.01 4.50Q52.49 5.11 52.49 6.14L52.49 6.14L52.49 6.14Q52.49 7.19 53.01 7.80L53.01 7.80L53.01 7.80Q53.52 8.42 54.39 8.42L54.39 8.42L54.39 8.42Q54.93 8.42 55.38 8.17L55.38 8.17L55.38 8.17Q55.84 7.93 56.11 7.49L56.11 7.49L56.11 7.49Q56.37 7.04 56.37 6.47Z"></path></g> <!----> <g data-v-5f19e91b="" id="6a11ff50-9dcb-a825-7026-ca8b12f79e34" transform="matrix(0.8888563513755798,0,0,0.8888563513755798,0.5583205223083496,0.44704797863960266)" stroke="none" fill="black"><!--?xml version="1.0" encoding="utf-8"?--><path d="M99.83,38.406c-0.208-1.5-0.539-2.889-0.734-3.088c-0.434-0.44-6.667,1.405-13.386,3.961
	c-9.14,3.479-16.956,8.074-22.536,13.157c0.162-2.141,0.234-4.286,0.089-6.428c-0.041-0.632-0.137-1.261-0.205-1.89
	c-0.41-2.821-1.359-5.509-3.221-7.705c-0.406-0.484-0.871-0.919-1.309-1.378c-2.698-2.477-5.834-4.372-9.042-6.111
	c0.127-0.105,0.265-0.218,0.406-0.333c3.736-1.438,7.448-2.961,10.576-5.055c0.438-0.335,0.901-0.651,1.312-1.004
	c1.858-1.602,2.808-3.562,3.218-5.619c0.068-0.458,0.164-0.916,0.205-1.375c0.259-2.797-0.164-5.604-0.592-8.379
	C64.136,4.746,63.57,2.334,62.589,0l-4.103,1.665c1.143,1.977,1.717,4.094,2.189,6.205H36.794c0.501-2.111,1.109-4.229,2.319-6.205
	L34.765,0c-1.042,2.334-1.644,4.746-2.147,7.158c-0.451,2.775-0.902,5.582-0.627,8.379c0.045,0.46,0.145,0.917,0.218,1.375
	c0.437,2.057,1.444,4.017,3.415,5.619c0.438,0.353,0.929,0.669,1.39,1.004c3.285,2.072,7.178,3.587,11.099,5.011
	c0.159,0.13,0.316,0.258,0.459,0.376c-3.219,1.74-6.363,3.635-9.068,6.112c-0.437,0.459-0.902,0.894-1.312,1.378
	c-1.865,2.196-2.814,4.884-3.229,7.705c-0.069,0.629-0.163,1.258-0.206,1.89c-0.139,2.051-0.079,4.105,0.07,6.156
	c-5.309-4.935-12.627-9.393-21.155-12.786c-6.427-2.557-12.391-4.402-12.804-3.961c-0.188,0.199-0.505,1.589-0.704,3.088
	c-0.401,3.016-0.046,6.874,0.928,10.078c3.837,12.612,17.536,23.151,39.181,30.14c4.802,1.551,4.362,1.465,4.69,0.905
	c0.484-0.839,0.594-7.729,0.153-9.791c-0.974-4.548-2.442-7.967-5.038-11.721c-0.21-0.305-0.44-0.606-0.666-0.908
	c-0.097-0.57-0.19-1.14-0.28-1.708c-0.285-2.374-0.537-4.772-0.603-7.172h20.976c-0.066,2.399-0.318,4.798-0.604,7.172
	c-0.099,0.625-0.201,1.251-0.309,1.877c-0.163,0.213-0.336,0.426-0.49,0.64c-2.716,3.752-4.249,7.171-5.267,11.72
	c-0.458,2.062-0.346,8.954,0.16,9.792c0.342,0.561-0.119,0.646,4.905-0.906c22.628-6.988,36.95-17.526,40.96-30.139
	C99.877,45.281,100.25,41.422,99.83,38.406z M50.958,27.712c0.048-0.042,0.084-0.076,0.101-0.094
	C51.103,27.608,51.056,27.646,50.958,27.712z M36.101,16.965c-0.15-1.166-0.163-2.335-0.098-3.504h25.418
	c0.062,1.169,0.049,2.338-0.093,3.504c-0.013,0.102-0.034,0.203-0.051,0.305H36.155C36.137,17.168,36.114,17.067,36.101,16.965z
	 M36.078,12.461c0.112-1.201,0.294-2.4,0.5-3.591h24.304c0.192,1.191,0.365,2.39,0.471,3.591H36.078z M39.923,23.805
	c-2.015-1.57-3.057-3.428-3.559-5.476c-0.004-0.02-0.008-0.039-0.012-0.059h24.74c-0.004,0.02-0.008,0.039-0.012,0.059
	c-0.472,2.048-1.455,3.906-3.354,5.476c-0.406,0.336-0.864,0.64-1.294,0.959c-1.652,1.07-3.448,2.042-5.366,2.844
	c0.008-0.015-0.016-0.007-0.096,0.042c-0.647,0.338-1.296,0.681-1.941,1.026c-0.645-0.346-1.29-0.688-1.936-1.026
	c-0.088-0.055-0.113-0.063-0.097-0.041c-2.036-0.802-3.945-1.774-5.696-2.846C40.838,24.444,40.357,24.141,39.923,23.805z
	 M47.004,27.621c0.017,0.019,0.05,0.049,0.094,0.088C46.995,27.643,46.953,27.608,47.004,27.621z M43.554,33.351
	c1.68-1.492,3.515-2.848,5.475-3.958c-0.156,0.088-0.128,0.042,0-0.077c0.127,0.119,0.156,0.165,0,0.077
	c1.954,1.11,3.781,2.465,5.462,3.958c0.431,0.439,0.888,0.853,1.295,1.315c0.774,0.879,1.391,1.827,1.888,2.828L40.31,37.596
	c0.507-1.039,1.139-2.021,1.942-2.929C42.663,34.204,43.12,33.79,43.554,33.351z M39.869,38.598l18.252-0.106
	c0.472,1.166,0.803,2.396,1.019,3.686c0.025,0.188,0.054,0.374,0.082,0.561H38.807c0.028-0.187,0.057-0.373,0.081-0.561
	C39.099,40.927,39.419,39.733,39.869,38.598z M38.516,47.33c-0.005-1.096,0.027-2.19,0.123-3.282
	c0.009-0.104,0.026-0.206,0.038-0.31h20.676c0.012,0.104,0.028,0.206,0.037,0.31c0.098,1.104,0.131,2.21,0.125,3.317L38.516,47.33z"></path></g></svg>