<svg data-v-1084b650="" xmlns="http://www.w3.org/2000/svg" viewBox="0 0 300 300"><!----> <!----> <rect data-v-1084b650="" fill="#156EAC" x="0" y="0" width="300px" height="300px" class="logo-background-square"></rect> <!----> <!----> <g data-v-1084b650="" id="dbe5a71c-6df5-62dc-38b2-dc31d4706f43" fill="#F6575E" stroke="none" transform="matrix(0.699999988079071,0,0,0.699999988079071,44.998409271240234,45.00202941894531)"><!--?xml version="1.0" encoding="utf-8"?--><svg version="1.1" xmlns="http://www.w3.org/2000/svg" xmlns:xlink="http://www.w3.org/1999/xlink" x="0px" y="0px" viewBox="0 0 100 79.999" enable-background="new 0 0 100 79.999" xml:space="preserve"><path d="M99.83,38.406c-0.208-1.5-0.539-2.889-0.734-3.088c-0.434-0.44-6.667,1.405-13.386,3.961
	c-9.14,3.479-16.956,8.074-22.536,13.157c0.162-2.141,0.234-4.286,0.089-6.428c-0.041-0.632-0.137-1.261-0.205-1.89
	c-0.41-2.821-1.359-5.509-3.221-7.705c-0.406-0.484-0.871-0.919-1.309-1.378c-2.698-2.477-5.834-4.372-9.042-6.111
	c0.127-0.105,0.265-0.218,0.406-0.333c3.736-1.438,7.448-2.961,10.576-5.055c0.438-0.335,0.901-0.651,1.312-1.004
	c1.858-1.602,2.808-3.562,3.218-5.619c0.068-0.458,0.164-0.916,0.205-1.375c0.259-2.797-0.164-5.604-0.592-8.379
	C64.136,4.746,63.57,2.334,62.589,0l-4.103,1.665c1.143,1.977,1.717,4.094,2.189,6.205H36.794c0.501-2.111,1.109-4.229,2.319-6.205
	L34.765,0c-1.042,2.334-1.644,4.746-2.147,7.158c-0.451,2.775-0.902,5.582-0.627,8.379c0.045,0.46,0.145,0.917,0.218,1.375
	c0.437,2.057,1.444,4.017,3.415,5.619c0.438,0.353,0.929,0.669,1.39,1.004c3.285,2.072,7.178,3.587,11.099,5.011
	c0.159,0.13,0.316,0.258,0.459,0.376c-3.219,1.74-6.363,3.635-9.068,6.112c-0.437,0.459-0.902,0.894-1.312,1.378
	c-1.865,2.196-2.814,4.884-3.229,7.705c-0.069,0.629-0.163,1.258-0.206,1.89c-0.139,2.051-0.079,4.105,0.07,6.156
	c-5.309-4.935-12.627-9.393-21.155-12.786c-6.427-2.557-12.391-4.402-12.804-3.961c-0.188,0.199-0.505,1.589-0.704,3.088
	c-0.401,3.016-0.046,6.874,0.928,10.078c3.837,12.612,17.536,23.151,39.181,30.14c4.802,1.551,4.362,1.465,4.69,0.905
	c0.484-0.839,0.594-7.729,0.153-9.791c-0.974-4.548-2.442-7.967-5.038-11.721c-0.21-0.305-0.44-0.606-0.666-0.908
	c-0.097-0.57-0.19-1.14-0.28-1.708c-0.285-2.374-0.537-4.772-0.603-7.172h20.976c-0.066,2.399-0.318,4.798-0.604,7.172
	c-0.099,0.625-0.201,1.251-0.309,1.877c-0.163,0.213-0.336,0.426-0.49,0.64c-2.716,3.752-4.249,7.171-5.267,11.72
	c-0.458,2.062-0.346,8.954,0.16,9.792c0.342,0.561-0.119,0.646,4.905-0.906c22.628-6.988,36.95-17.526,40.96-30.139
	C99.877,45.281,100.25,41.422,99.83,38.406z M50.958,27.712c0.048-0.042,0.084-0.076,0.101-0.094
	C51.103,27.608,51.056,27.646,50.958,27.712z M36.101,16.965c-0.15-1.166-0.163-2.335-0.098-3.504h25.418
	c0.062,1.169,0.049,2.338-0.093,3.504c-0.013,0.102-0.034,0.203-0.051,0.305H36.155C36.137,17.168,36.114,17.067,36.101,16.965z
	 M36.078,12.461c0.112-1.201,0.294-2.4,0.5-3.591h24.304c0.192,1.191,0.365,2.39,0.471,3.591H36.078z M39.923,23.805
	c-2.015-1.57-3.057-3.428-3.559-5.476c-0.004-0.02-0.008-0.039-0.012-0.059h24.74c-0.004,0.02-0.008,0.039-0.012,0.059
	c-0.472,2.048-1.455,3.906-3.354,5.476c-0.406,0.336-0.864,0.64-1.294,0.959c-1.652,1.07-3.448,2.042-5.366,2.844
	c0.008-0.015-0.016-0.007-0.096,0.042c-0.647,0.338-1.296,0.681-1.941,1.026c-0.645-0.346-1.29-0.688-1.936-1.026
	c-0.088-0.055-0.113-0.063-0.097-0.041c-2.036-0.802-3.945-1.774-5.696-2.846C40.838,24.444,40.357,24.141,39.923,23.805z
	 M47.004,27.621c0.017,0.019,0.05,0.049,0.094,0.088C46.995,27.643,46.953,27.608,47.004,27.621z M43.554,33.351
	c1.68-1.492,3.515-2.848,5.475-3.958c-0.156,0.088-0.128,0.042,0-0.077c0.127,0.119,0.156,0.165,0,0.077
	c1.954,1.11,3.781,2.465,5.462,3.958c0.431,0.439,0.888,0.853,1.295,1.315c0.774,0.879,1.391,1.827,1.888,2.828L40.31,37.596
	c0.507-1.039,1.139-2.021,1.942-2.929C42.663,34.204,43.12,33.79,43.554,33.351z M39.869,38.598l18.252-0.106
	c0.472,1.166,0.803,2.396,1.019,3.686c0.025,0.188,0.054,0.374,0.082,0.561H38.807c0.028-0.187,0.057-0.373,0.081-0.561
	C39.099,40.927,39.419,39.733,39.869,38.598z M38.516,47.33c-0.005-1.096,0.027-2.19,0.123-3.282
	c0.009-0.104,0.026-0.206,0.038-0.31h20.676c0.012,0.104,0.028,0.206,0.037,0.31c0.098,1.104,0.131,2.21,0.125,3.317L38.516,47.33z"></path></svg></g></svg>